{
    "profiles": [
      {
        "id": 1,
        "name": "Shantanu Tekale",
        "description": "Software Engineer",
        "address": "123 Main, nanded, india",
        "coordinates": {
          "latitude": 123.456,
          "longitude": -789.012
        }
      },
      
      {
        "id": 2,
        "name": "Sumit Tekale",
        "description": "Graphic Designer",
        "address": "456 , Nanded, india",
        "coordinates": {
          "latitude": 456.789,
          "longitude": -123.456
        }
      },
      {
        "id": 3,
        "name": "Sneha Tekale",
        "description": "Marketing Manager",
        "address": "789 , nanded, India",
        "coordinates": {
          "latitude": 789.012,
          "longitude": -456.789
        }
      }
      
    ]
  }
  